digraph CFARtest_2760 {
node0 [label="ComplexSource__1602_2743", push="64", pop="0", peek="0", pushType="complex", popType="void", peekType="void", codeSize="309 b", stackSize="544 b", work="61760"];
node1 [label="WEIGHTED_ROUND_ROBIN_Splitter_2749", push="1", pop="8", peek="0", pushType="complex", popType="complex", peekType="void", codeSize="102 b", stackSize="32 b", work="1"];
node2 [label="SquareAndScale__1608_2751", push="1", pop="1", peek="8", pushType="float", popType="complex", peekType="complex", codeSize="73 b", stackSize="544 b", work="361"];
node3 [label="SquareAndScale__1608_2752", push="1", pop="1", peek="8", pushType="float", popType="complex", peekType="complex", codeSize="73 b", stackSize="544 b", work="361"];
node4 [label="SquareAndScale__1608_2753", push="1", pop="1", peek="8", pushType="float", popType="complex", peekType="complex", codeSize="73 b", stackSize="544 b", work="361"];
node5 [label="SquareAndScale__1608_2754", push="1", pop="1", peek="8", pushType="float", popType="complex", peekType="complex", codeSize="73 b", stackSize="544 b", work="361"];
node6 [label="SquareAndScale__1608_2755", push="1", pop="1", peek="8", pushType="float", popType="complex", peekType="complex", codeSize="73 b", stackSize="544 b", work="361"];
node7 [label="SquareAndScale__1608_2756", push="1", pop="1", peek="8", pushType="float", popType="complex", peekType="complex", codeSize="73 b", stackSize="544 b", work="361"];
node8 [label="SquareAndScale__1608_2757", push="1", pop="1", peek="8", pushType="float", popType="complex", peekType="complex", codeSize="73 b", stackSize="544 b", work="361"];
node9 [label="SquareAndScale__1608_2758", push="1", pop="1", peek="8", pushType="float", popType="complex", peekType="complex", codeSize="73 b", stackSize="544 b", work="361"];
node10 [label="WEIGHTED_ROUND_ROBIN_Joiner_2750", push="8", pop="1", peek="0", pushType="float", popType="float", peekType="void", codeSize="102 b", stackSize="32 b", work="1"];
node11 [label="CFAR_gather__1620_2746", push="64", pop="64", peek="640", pushType="float", popType="float", peekType="float", codeSize="354 b", stackSize="128 b", work="202"];
node12 [label="AnonFilter_a0__1623_2747", push="0", pop="64", peek="64", pushType="void", popType="float", peekType="float", codeSize="16 b", stackSize="0 b", work="6"];
node0 -> node1;
node1 -> node2;
node1 -> node3;
node1 -> node4;
node1 -> node5;
node1 -> node6;
node1 -> node7;
node1 -> node8;
node1 -> node9;
node2 -> node10;
node3 -> node10;
node4 -> node10;
node5 -> node10;
node6 -> node10;
node7 -> node10;
node8 -> node10;
node9 -> node10;
node10 -> node11;
node11 -> node12;
}
